…
    ## # A tibble: 1 x 1
    ##       n
    ##   <int>
    ## 1   134

``` r
instacart %>% 
  janitor::clean_names() %>% 
  group_by(aisle) %>% 
  summarize(n_obs = n()) %>% 
  arrange(desc(n_obs))
```

    ## # A tibble: 134 x 2
    ##    aisle                          n_obs
    ##    <chr>                          <int>
    ##  1 fresh vegetables              150609
    ##  2 fresh fruits                  150473
    ##  3 packaged vegetables fruits     78493
    ##  4 yogurt                         55240
    ##  5 packaged cheese                41699
    ##  6 water seltzer sparkling water  36617
    ##  7 milk                           32644
    ##  8 chips pretzels                 31269
    ##  9 soy lactosefree                26240
    ## 10 bread                          23635
    ## # ... with 124 more rows
…
``` r
ny_noaa_tidy = 
  ny_noaa %>%
  janitor::clean_names() %>% 
  separate(date, into = c("year", "month", "date"), sep = "-") %>%
  mutate(prcp = as.numeric(prcp)/10, tmax = as.numeric(tmax)/10, tmin = as.numeric(tmin)/10)
ny_noaa_tidy %>% 
  group_by(snow) %>% 
  summarize(n = n()) %>% 
  arrange(desc(n))
```

    ## # A tibble: 282 x 2
    ##     snow       n
    ##    <int>   <int>
    ##  1     0 2008508
    ##  2    NA  381221
    ##  3    25   31022
    ##  4    13   23095
    ##  5    51   18274
    ##  6    76   10173
    ##  7     8    9962
    ##  8     5    9748
    ##  9    38    9197
    ## 10     3    8790
    ## # ... with 272 more rows
…
